{
  "results": [
    {
      "popularity": 152.335,
      "vote_count": 2468,
      "video": false,
      "poster_path": "\/8WUVHemHFH2ZIP6NWkwlHWsyrEL.jpg",
      "id": 338762,
      "adult": false,
      "backdrop_path": "\/ocUrMYbdjknu2TwzMHKT9PBBQRw.jpg",
      "original_language": "en",
      "original_title": "Bloodshot",
      "genre_ids": [
        28,
        878
      ],
      "title": "Bloodshot",
      "vote_average": 7,
      "overview": "After he and his wife are murdered, marine Ray Garrison is resurrected by a team of scientists. Enhanced with nanotechnology, he becomes a superhuman, biotech killing machine—'Bloodshot'. As Ray first trains with fellow super-soldiers, he cannot recall anything from his former life. But when his memories flood back and he remembers the man that killed both him and his wife, he breaks out of the facility to get revenge, only to discover that there's more to the conspiracy than he thought.",
      "release_date": "2020-03-05"
    },
    {
      "popularity": 170.1,
      "vote_count": 80,
      "video": false,
      "poster_path": "\/niyXFhGIk4W2WTcX2Eod8vx2Mfe.jpg",
      "id": 686245,
      "adult": false,
      "backdrop_path": "\/pPguXG07MDRKH1agJdw1mWzuEkP.jpg",
      "original_language": "en",
      "original_title": "Survive the Night",
      "genre_ids": [
        28,
        53
      ],
      "title": "Survive the Night",
      "vote_average": 5.8,
      "overview": "A disgraced doctor and his family are held hostage at their home by criminals on the run, when a robbery-gone-awry requires them to seek immediate medical attention.",
      "release_date": "2020-05-22"
    },
    {
      "popularity": 92.107,
      "vote_count": 29,
      "video": false,
      "poster_path": "\/m2rJGjlesDKxugl7ypW8n3Mipjl.jpg",
      "id": 620883,
      "adult": false,
      "backdrop_path": "\/prnq2ONhqo9Tga7dOMZKgFJMofs.jpg",
      "original_language": "es",
      "original_title": "La corazonada",
      "genre_ids": [
        80,
        53
      ],
      "title": "Intuition",
      "vote_average": 5.7,
      "overview": "Police officer Pipa works on her first big case while simultaneously investigating her boss, who is suspected of murder. The prequel to \"Perdida\".",
      "release_date": "2020-05-28"
    },
    {
      "popularity": 126.482,
      "vote_count": 732,
      "video": false,
      "poster_path": "\/wxPhn4ef1EAo5njxwBkAEVrlJJG.jpg",
      "id": 514847,
      "adult": false,
      "backdrop_path": "\/qfQ78ZKiouoM2yhAnfNblp9ijQE.jpg",
      "original_language": "en",
      "original_title": "The Hunt",
      "genre_ids": [
        28,
        27,
        53
      ],
      "title": "The Hunt",
      "vote_average": 6.7,
      "overview": "Twelve strangers wake up in a clearing. They don't know where they are—or how they got there. In the shadow of a dark internet conspiracy theory, ruthless elitists gather at a remote location to hunt humans for sport. But their master plan is about to be derailed when one of the hunted turns the tables on her pursuers.",
      "release_date": "2020-03-11"
    },
    {
      "popularity": 122.766,
      "vote_count": 1268,
      "video": false,
      "poster_path": "\/33VdppGbeNxICrFUtW2WpGHvfYc.jpg",
      "id": 481848,
      "adult": false,
      "backdrop_path": "\/9sXHqZTet3Zg5tgcc0hCDo8Tn35.jpg",
      "original_language": "en",
      "original_title": "The Call of the Wild",
      "genre_ids": [
        12,
        18,
        10751
      ],
      "title": "The Call of the Wild",
      "vote_average": 7.4,
      "overview": "Buck is a big-hearted dog whose blissful domestic life is turned upside down when he is suddenly uprooted from his California home and transplanted to the exotic wilds of the Yukon during the Gold Rush of the 1890s. As the newest rookie on a mail delivery dog sled team—and later its leader—Buck experiences the adventure of a lifetime, ultimately finding his true place in the world and becoming his own master.",
      "release_date": "2020-02-19"
    },
    {
      "popularity": 73.326,
      "vote_count": 2016,
      "video": false,
      "poster_path": "\/f4aul3FyD3jv3v4bul1IrkWZvzq.jpg",
      "id": 508439,
      "adult": false,
      "backdrop_path": "\/xFxk4vnirOtUxpOEWgA1MCRfy6J.jpg",
      "original_language": "en",
      "original_title": "Onward",
      "genre_ids": [
        12,
        16,
        35,
        14,
        10751
      ],
      "title": "Onward",
      "vote_average": 7.9,
      "overview": "In a suburban fantasy world, two teenage elf brothers embark on an extraordinary quest to discover if there is still a little magic left out there.",
      "release_date": "2020-02-29"
    },
    {
      "popularity": 84.822,
      "vote_count": 7660,
      "video": false,
      "poster_path": "\/7IiTTgloJzvGI1TAYymCfbfl3vT.jpg",
      "id": 496243,
      "adult": false,
      "backdrop_path": "\/ApiBzeaa95TNYliSbQ8pJv4Fje7.jpg",
      "original_language": "ko",
      "original_title": "기생충",
      "genre_ids": [
        35,
        18,
        53
      ],
      "title": "Parasite",
      "vote_average": 8.5,
      "overview": "All unemployed, Ki-taek's family takes peculiar interest in the wealthy and glamorous Parks for their livelihood until they get entangled in an unexpected incident.",
      "release_date": "2019-05-30"
    },
    {
      "popularity": 68.308,
      "vote_count": 1214,
      "video": false,
      "poster_path": "\/gzlbb3yeVISpQ3REd3Ga1scWGTU.jpg",
      "id": 443791,
      "adult": false,
      "backdrop_path": "\/ww7eC3BqSbFsyE5H5qMde8WkxJ2.jpg",
      "original_language": "en",
      "original_title": "Underwater",
      "genre_ids": [
        28,
        27,
        878,
        53
      ],
      "title": "Underwater",
      "vote_average": 6.3,
      "overview": "After an earthquake destroys their underwater station, six researchers must navigate two miles along the dangerous, unknown depths of the ocean floor to make it to safety in a race against time.",
      "release_date": "2020-01-08"
    },
    {
      "popularity": 58.096,
      "vote_count": 503,
      "video": false,
      "poster_path": "\/c01Y4suApJ1Wic2xLmaq1QYcfoZ.jpg",
      "id": 618344,
      "adult": false,
      "backdrop_path": "\/sQkRiQo3nLrQYMXZodDjNUJKHZV.jpg",
      "original_language": "en",
      "original_title": "Justice League Dark: Apokolips War",
      "genre_ids": [
        28,
        12,
        16,
        14,
        878
      ],
      "title": "Justice League Dark: Apokolips War",
      "vote_average": 8.5,
      "overview": "Earth is decimated after intergalactic tyrant Darkseid has devastated the Justice League in a poorly executed war by the DC Super Heroes. Now the remaining bastions of good – the Justice League, Teen Titans, Suicide Squad and assorted others – must regroup, strategize and take the war to Darkseid in order to save the planet and its surviving inhabitants.",
      "release_date": "2020-05-05"
    },
    {
      "popularity": 64.776,
      "vote_count": 1309,
      "video": false,
      "poster_path": "\/jtrhTYB7xSrJxR1vusu99nvnZ1g.jpg",
      "id": 522627,
      "adult": false,
      "backdrop_path": "\/tintsaQ0WLzZsTMkTiqtMB3rfc8.jpg",
      "original_language": "en",
      "original_title": "The Gentlemen",
      "genre_ids": [
        28,
        35,
        80
      ],
      "title": "The Gentlemen",
      "vote_average": 7.7,
      "overview": "American expat Mickey Pearson has built a highly profitable marijuana empire in London. When word gets out that he’s looking to cash out of the business forever it triggers plots, schemes, bribery and blackmail in an attempt to steal his domain out from under him.",
      "release_date": "2020-01-01"
    },
    {
      "popularity": 51.116,
      "vote_count": 5,
      "video": false,
      "poster_path": "\/A8FWpw3WHUo9EvU1xMWZRjdRlN3.jpg",
      "id": 647785,
      "adult": false,
      "backdrop_path": "\/vXUX7Qi4rtOh2TxqA1eB2CU6QAo.jpg",
      "original_language": "en",
      "original_title": "Debt Collectors",
      "genre_ids": [
        28
      ],
      "title": "Debt Collectors",
      "vote_average": 4,
      "overview": "A pair of debt collectors are thrust into an explosively dangerous situation, chasing down various lowlifes while also evading a vengeful kingpin.",
      "release_date": "2020-05-29"
    },
    {
      "popularity": 50.108,
      "vote_count": 5,
      "video": false,
      "poster_path": "\/oyG9TL7FcRP4EZ9Vid6uKzwdndz.jpg",
      "id": 696374,
      "adult": false,
      "backdrop_path": "\/fDTPiqCynPQIkojfzdeyRHpw99S.jpg",
      "original_language": "en",
      "original_title": "Gabriel's Inferno",
      "genre_ids": [
        10749
      ],
      "title": "Gabriel's Inferno",
      "vote_average": 6.2,
      "overview": "An intriguing and sinful exploration of seduction, forbidden love, and redemption, Gabriel's Inferno is a captivating and wildly passionate tale of one man's escape from his own personal hell as he tries to earn the impossible--forgiveness and love.",
      "release_date": "2020-05-29"
    },
    {
      "popularity": 42.112,
      "vote_count": 30,
      "video": false,
      "poster_path": "\/wstBF4Yv6Jk90BjYf25mq1zqGxk.jpg",
      "id": 565743,
      "adult": false,
      "backdrop_path": "\/lVSMgZUBE4XTVaPBEBAczre4f1W.jpg",
      "original_language": "en",
      "original_title": "The Vast of Night",
      "genre_ids": [
        14,
        27,
        9648,
        878
      ],
      "title": "The Vast of Night",
      "vote_average": 6.7,
      "overview": "At the dawn of the space-race, two radio-obsessed teens discover a strange frequency over the airwaves in what becomes the most important night of their lives and in the history of their small town.",
      "release_date": "2020-05-15"
    },
    {
      "popularity": 33.759,
      "vote_count": 3155,
      "video": false,
      "poster_path": "\/8ZX18L5m6rH5viSYpRnTSbb9eXh.jpg",
      "id": 619264,
      "adult": false,
      "backdrop_path": "\/3tkDMNfM2YuIAJlvGO6rfIzAnfG.jpg",
      "original_language": "es",
      "original_title": "El hoyo",
      "genre_ids": [
        18,
        878,
        53
      ],
      "title": "The Platform",
      "vote_average": 7,
      "overview": "A mysterious place, an indescribable prison, a deep hole. An unknown number of levels. Two inmates living on each level. A descending platform containing food for all of them. An inhuman fight for survival, but also an opportunity for solidarity…",
      "release_date": "2019-11-08"
    },
    {
      "popularity": 38.301,
      "vote_count": 14327,
      "video": false,
      "poster_path": "\/fnbjcRDYn6YviCcePDnGdyAkYsB.jpg",
      "id": 263115,
      "adult": false,
      "backdrop_path": "\/yEv8c6i79vk06sZDC3Z9D8HQLVV.jpg",
      "original_language": "en",
      "original_title": "Logan",
      "genre_ids": [
        28,
        18,
        878
      ],
      "title": "Logan",
      "vote_average": 7.8,
      "overview": "In the near future, a weary Logan cares for an ailing Professor X in a hideout on the Mexican border. But Logan's attempts to hide from the world and his legacy are upended when a young mutant arrives, pursued by dark forces.",
      "release_date": "2017-02-28"
    },
    {
      "popularity": 25.545,
      "vote_count": 3,
      "video": false,
      "poster_path": "\/4O25KEus4wc5xj2wJSvvsj2DRuW.jpg",
      "id": 696007,
      "adult": false,
      "backdrop_path": "\/1xYTUpCutAYgpbqC9Gxw7qIbc0T.jpg",
      "original_language": "en",
      "original_title": "Legacy",
      "genre_ids": [
        28,
        53
      ],
      "title": "Legacy",
      "vote_average": 6.7,
      "overview": "While on a hunting trip in the isolated wilderness, a father and his adopted teenage son are turned into the prey of unknown assailants. They are unexpectedly joined in their fight for ...",
      "release_date": "2020-05-28"
    },
    {
      "popularity": 20.32,
      "vote_count": 18,
      "video": false,
      "poster_path": "\/7BC2Mv2ekyBIto68YOrc1DRARv6.jpg",
      "id": 597295,
      "adult": false,
      "backdrop_path": "\/hOREXWuVMG0xSKjdwh6QeOoJDFo.jpg",
      "original_language": "zh",
      "original_title": "我的青春都是你",
      "genre_ids": [
        35,
        10749
      ],
      "title": "Love The Way You Are",
      "vote_average": 4.9,
      "overview": "Opposites clash when spunky girl next door Lin Lin meets eccentric nerd Yuke. Despite being neighbors and schoolmates since childhood, Lin Lin and Yuke barely know each other. When the pair are both admitted into the same university, Lin Lin discovers that Yuke harbors a secret crush for campus beauty, Ruting. Ever the busybody, Lin Lin decides to matchmake Yuke and Ruting, only to find herself gradually falling for Yuke.",
      "release_date": "2019-06-21"
    },
    {
      "popularity": 38.684,
      "vote_count": 727,
      "video": false,
      "poster_path": "\/7W0G3YECgDAfnuiHG91r8WqgIOe.jpg",
      "id": 446893,
      "adult": false,
      "backdrop_path": "\/qsxhnirlp7y4Ae9bd11oYJSX59j.jpg",
      "original_language": "en",
      "original_title": "Trolls World Tour",
      "genre_ids": [
        12,
        16,
        35,
        14,
        10402,
        10751
      ],
      "title": "Trolls World Tour",
      "vote_average": 7.6,
      "overview": "Queen Poppy and Branch make a surprising discovery — there are other Troll worlds beyond their own, and their distinct differences create big clashes between these various tribes. When a mysterious threat puts all of the Trolls across the land in danger, Poppy, Branch, and their band of friends must embark on an epic quest to create harmony among the feuding Trolls to unite them against certain doom.",
      "release_date": "2020-03-12"
    },
    {
      "popularity": 22.738,
      "vote_count": 525,
      "video": false,
      "poster_path": "\/hJ6YEbrjFvToa5c7IiUqILoB6Je.jpg",
      "id": 552178,
      "adult": false,
      "backdrop_path": "\/4ZSlTfkHtgTTupCaLbseXQQzZha.jpg",
      "original_language": "en",
      "original_title": "Dark Waters",
      "genre_ids": [
        18,
        53
      ],
      "title": "Dark Waters",
      "vote_average": 7.4,
      "overview": "A tenacious attorney uncovers a dark secret that connects a growing number of unexplained deaths to one of the world's largest corporations. In the process, he risks everything — his future, his family, and his own life — to expose the truth.",
      "release_date": "2019-11-22"
    },
    {
      "popularity": 28.564,
      "vote_count": 1519,
      "video": false,
      "poster_path": "\/3nk9UoepYmv1G9oP18q6JJCeYwN.jpg",
      "id": 503919,
      "adult": false,
      "backdrop_path": "\/tNE9HGcFOH8EpCmzO7XCYwqguI0.jpg",
      "original_language": "en",
      "original_title": "The Lighthouse",
      "genre_ids": [
        18,
        14,
        27,
        9648
      ],
      "title": "The Lighthouse",
      "vote_average": 7.6,
      "overview": "Two lighthouse keepers try to maintain their sanity while living on a remote and mysterious New England island in the 1890s.",
      "release_date": "2019-10-18"
    }
  ],
  "page": 1,
  "total_results": 637,
  "dates": {
    "maximum": "2020-05-31",
    "minimum": "2020-04-13"
  },
  "total_pages": 32
}
