{
  "results": [
    {
      "popularity": 126.482,
      "vote_count": 732,
      "video": false,
      "poster_path": "\/wxPhn4ef1EAo5njxwBkAEVrlJJG.jpg",
      "id": 514847,
      "adult": false,
      "backdrop_path": "\/qfQ78ZKiouoM2yhAnfNblp9ijQE.jpg",
      "original_language": "en",
      "original_title": "The Hunt",
      "genre_ids": [
        28,
        27,
        53
      ],
      "title": "The Hunt",
      "vote_average": 6.7,
      "overview": "Twelve strangers wake up in a clearing. They don't know where they are—or how they got there. In the shadow of a dark internet conspiracy theory, ruthless elitists gather at a remote location to hunt humans for sport. But their master plan is about to be derailed when one of the hunted turns the tables on her pursuers.",
      "release_date": "2020-03-11"
    },
    {
      "popularity": 73.326,
      "vote_count": 2016,
      "video": false,
      "poster_path": "\/f4aul3FyD3jv3v4bul1IrkWZvzq.jpg",
      "id": 508439,
      "adult": false,
      "backdrop_path": "\/xFxk4vnirOtUxpOEWgA1MCRfy6J.jpg",
      "original_language": "en",
      "original_title": "Onward",
      "genre_ids": [
        12,
        16,
        35,
        14,
        10751
      ],
      "title": "Onward",
      "vote_average": 7.9,
      "overview": "In a suburban fantasy world, two teenage elf brothers embark on an extraordinary quest to discover if there is still a little magic left out there.",
      "release_date": "2020-02-29"
    },
    {
      "popularity": 51.116,
      "vote_count": 5,
      "video": false,
      "poster_path": "\/A8FWpw3WHUo9EvU1xMWZRjdRlN3.jpg",
      "id": 647785,
      "adult": false,
      "backdrop_path": "\/vXUX7Qi4rtOh2TxqA1eB2CU6QAo.jpg",
      "original_language": "en",
      "original_title": "Debt Collectors",
      "genre_ids": [
        28
      ],
      "title": "Debt Collectors",
      "vote_average": 4,
      "overview": "A pair of debt collectors are thrust into an explosively dangerous situation, chasing down various lowlifes while also evading a vengeful kingpin.",
      "release_date": "2020-05-29"
    },
    {
      "popularity": 50.17,
      "vote_count": 0,
      "video": false,
      "poster_path": "\/uCDcQbfIKY4oTPd6tbghloFm7Gi.jpg",
      "id": 606679,
      "adult": false,
      "backdrop_path": "\/2jHGYnzX7OxTLMS5MFOht6tf0Wn.jpg",
      "original_language": "en",
      "original_title": "The High Note",
      "genre_ids": [
        35,
        18,
        10402,
        10749
      ],
      "title": "The High Note",
      "vote_average": 0,
      "overview": "Set in the dazzling world of the LA music scene comes the story of Grace Davis, a superstar whose talent, and ego, have reached unbelievable heights. Maggie is Grace’s overworked personal assistant who’s stuck running errands, but still aspires to her childhood dream of becoming a music producer. When Grace’s manager presents her with a choice that could alter the course of her career, Maggie and Grace come up with a plan that could change their lives forever.",
      "release_date": "2020-06-10"
    },
    {
      "popularity": 38.307,
      "vote_count": 2,
      "video": false,
      "poster_path": "\/55IKjPwwt4simNbyyTSZPp7kXXH.jpg",
      "id": 628898,
      "adult": false,
      "backdrop_path": "\/5D4znPqUD1aK905ExYCyiljXvx7.jpg",
      "original_language": "en",
      "original_title": "The Latin from Manhattan",
      "genre_ids": [],
      "title": "The Latin from Manhattan",
      "vote_average": 5.5,
      "overview": "Follows the wild, exhilarating life of legendary adult film icon Vanessa Del Rio, set against the backdrop of organized crime-controlled Times Square during the 70s and 80s.",
      "release_date": "2020-06-01"
    },
    {
      "popularity": 28.391,
      "vote_count": 16,
      "video": false,
      "poster_path": "\/xW9lYcdbVvna9MSnj6e2C1AcRhk.jpg",
      "id": 500656,
      "adult": false,
      "backdrop_path": "\/yDlPNd8M2Mw8WrwjmMI5rmoMTIE.jpg",
      "original_language": "en",
      "original_title": "A Good Woman Is Hard to Find",
      "genre_ids": [
        80,
        53
      ],
      "title": "A Good Woman Is Hard to Find",
      "vote_average": 5.7,
      "overview": "The recently widowed mother of two, Sarah, is desperate to know who murdered her husband in front of her young son, rendering him mute. Coerced into helping a low-life drug dealer stash narcotics stolen from the local Mr. Big, she's forced into taking drastic action to protect her children, evolving from downtrodden submissive to take-charge vigilante.",
      "release_date": "2019-10-25"
    },
    {
      "popularity": 27.982,
      "vote_count": 1814,
      "video": false,
      "poster_path": "\/kTQ3J8oTTKofAVLYnds2cHUz9KO.jpg",
      "id": 522938,
      "adult": false,
      "backdrop_path": "\/3IHqwENGxOb36Jgeot4XHs3BTxz.jpg",
      "original_language": "en",
      "original_title": "Rambo: Last Blood",
      "genre_ids": [
        28,
        18,
        53
      ],
      "title": "Rambo: Last Blood",
      "vote_average": 6.3,
      "overview": "After fighting his demons for decades, John Rambo now lives in peace on his family ranch in Arizona, but his rest is interrupted when Gabriela, the granddaughter of his housekeeper María, disappears after crossing the border into Mexico to meet her biological father. Rambo, who has become a true father figure for Gabriela over the years, undertakes a desperate and dangerous journey to find her.",
      "release_date": "2019-09-19"
    },
    {
      "popularity": 25.676,
      "vote_count": 312,
      "video": false,
      "poster_path": "\/sm8iVzA7kRp0d4BSIsgXjsSBMKV.jpg",
      "id": 556678,
      "adult": false,
      "backdrop_path": "\/5GbkL9DDRzq3A21nR7Gkv6cFGjq.jpg",
      "original_language": "en",
      "original_title": "Emma.",
      "genre_ids": [
        35,
        18,
        10749
      ],
      "title": "Emma.",
      "vote_average": 7,
      "overview": "In 1800s England, a well-meaning but selfish young woman meddles in the love lives of her friends.",
      "release_date": "2020-02-13"
    },
    {
      "popularity": 25.343,
      "vote_count": 658,
      "video": false,
      "poster_path": "\/2kNnf7BwRCEm4bcFkdiE0T4U25s.jpg",
      "id": 457335,
      "adult": false,
      "backdrop_path": "\/fssCO59bqU5f0zngeYKex0g1vyb.jpg",
      "original_language": "en",
      "original_title": "Guns Akimbo",
      "genre_ids": [
        28,
        35
      ],
      "title": "Guns Akimbo",
      "vote_average": 6.4,
      "overview": "An ordinary guy suddenly finds himself forced to fight a gladiator-like battle for a dark website that streams the violence for viewers. Miles must fight heavily armed Nix and also save his kidnapped ex-girlfriend.",
      "release_date": "2019-09-09"
    },
    {
      "popularity": 24.909,
      "vote_count": 0,
      "video": false,
      "poster_path": "\/shx7pGYQ9s4t7WFe19eES2WOrMS.jpg",
      "id": 610201,
      "adult": false,
      "backdrop_path": "\/lvtEcdBmmrxzAQvRIYyDRQDeDJM.jpg",
      "original_language": "en",
      "original_title": "The Pale Door",
      "genre_ids": [
        27,
        37
      ],
      "title": "The Pale Door",
      "vote_average": 0,
      "overview": "After a stagecoach robbery goes bad, two brothers leading a gang of cowboys must survive the night in a ghost town inhabited by a coven of witches.",
      "release_date": "2020-06-18"
    },
    {
      "popularity": 26.518,
      "vote_count": 1116,
      "video": false,
      "poster_path": "\/ybizg6RSYX3yvOQ2iLYucTrHGw2.jpg",
      "id": 484641,
      "adult": false,
      "backdrop_path": "\/oHDnvxSDOTsaYZSUibJjrEMWMLL.jpg",
      "original_language": "fr",
      "original_title": "Anna",
      "genre_ids": [
        28,
        53
      ],
      "title": "Anna",
      "vote_average": 6.7,
      "overview": "Beneath Anna Poliatova's striking beauty lies a secret that will unleash her indelible strength and skill to become one of the world's most feared government assassins.",
      "release_date": "2019-06-19"
    },
    {
      "popularity": 25.257,
      "vote_count": 1,
      "video": false,
      "poster_path": "\/bpUEfTvX9u9M6shhSSNaM5Er7Tv.jpg",
      "id": 678856,
      "adult": false,
      "backdrop_path": null,
      "original_language": "fa",
      "original_title": "مست عشق",
      "genre_ids": [
        18,
        36,
        10749
      ],
      "title": "Drunk on Love",
      "vote_average": 2,
      "overview": "Story of Rumi, his friendship with Shams Tabrizi, the love he had for him and the great influence of Shams over him in his life, his poetry and his love for God.",
      "release_date": "2020-06-01"
    },
    {
      "popularity": 23.927,
      "vote_count": 1,
      "video": false,
      "poster_path": null,
      "id": 707071,
      "adult": false,
      "backdrop_path": null,
      "original_language": "en",
      "original_title": "Stad van Verlangen",
      "genre_ids": [
        99
      ],
      "title": "City of Desire",
      "vote_average": 1,
      "overview": "Explores the identities of the architects who immigrated to Palestine from Germany in the 1930s in response to growing anti-Semitism.",
      "release_date": "2020-06-01"
    },
    {
      "popularity": 23.587,
      "vote_count": 1,
      "video": false,
      "poster_path": "\/nz3SAVhkcFwCwNUkSGgvGbvqsYK.jpg",
      "id": 691709,
      "adult": false,
      "backdrop_path": null,
      "original_language": "sr",
      "original_title": "Matura",
      "genre_ids": [
        18,
        10749
      ],
      "title": "Prom Night",
      "vote_average": 1,
      "overview": "Three best friends ditch their high school prom dance. The night that follows unravels their hidden and suppressed desires which cast a glimpse of the emotional bewilderment of a whole generation.",
      "release_date": "2020-06-01"
    },
    {
      "popularity": 22.675,
      "vote_count": 0,
      "video": false,
      "poster_path": "\/cDbOrc2RtIA37nLm0CzVpFLrdaG.jpg",
      "id": 513584,
      "adult": false,
      "backdrop_path": "\/yqKgsu92k1EmW9u9rT5cpX1jKwv.jpg",
      "original_language": "en",
      "original_title": "Think Like a Dog",
      "genre_ids": [
        35,
        10751
      ],
      "title": "Think Like a Dog",
      "vote_average": 0,
      "overview": "A 12-year-old tech prodigy whose science experiment goes awry and he forges a telepathic connection with his best friend, his dog. The duo join forces and use their unique perspectives on life to comically overcome complications of family and school.",
      "release_date": "2020-06-18"
    },
    {
      "popularity": 22.645,
      "vote_count": 1,
      "video": false,
      "poster_path": "\/ftfxQ0VSEtxlft25mtmr5Yl1ZqS.jpg",
      "id": 703369,
      "adult": false,
      "backdrop_path": "\/sT2wQ8t4D4Ob1PpjN7bBUfFTEi2.jpg",
      "original_language": "ja",
      "original_title": "許された子どもたち",
      "genre_ids": [],
      "title": "Forgiven Children",
      "vote_average": 2,
      "overview": "No overview found.",
      "release_date": "2020-06-01"
    },
    {
      "popularity": 12.567,
      "vote_count": 119,
      "video": false,
      "poster_path": "\/8A6qALzfMxgj51ly8KyTCZfXutG.jpg",
      "id": 477018,
      "adult": false,
      "backdrop_path": "\/uaC1Swfs1fo7Y9fV1iRHzLdhFHo.jpg",
      "original_language": "fr",
      "original_title": "Les Traducteurs",
      "genre_ids": [
        53
      ],
      "title": "The Translators",
      "vote_average": 6.9,
      "overview": "Nine translators have been picked by a ruthless publisher and locked in a luxury bunker to translate the highly anticipated book of a famous author in record time. Although the translators are confined to prevent any kind of leak because of the high financial stakes, a crisis erupts when someone posts the first 10 pages of the novel online and blackmails the publisher to pay 5 million euros. A hunt for the culprit inside the bunker unfolds.",
      "release_date": "2019-12-20"
    },
    {
      "popularity": 18.805,
      "vote_count": 0,
      "video": false,
      "poster_path": "\/kPwlinQkY86Vtwzg76oEDhdXXGB.jpg",
      "id": 524047,
      "adult": false,
      "backdrop_path": "\/9EPYe2dKXAE6vKgGpi7GvqOushn.jpg",
      "original_language": "en",
      "original_title": "Greenland",
      "genre_ids": [
        28,
        878,
        53
      ],
      "title": "Greenland",
      "vote_average": 0,
      "overview": "A detached married couple must get their son and themselves to safety after being randomly selected to enter an underground bunker, as a massive object from space threatens to destroy the world in less than 48 hours.",
      "release_date": "2020-06-12"
    },
    {
      "popularity": 22.921,
      "vote_count": 0,
      "video": false,
      "poster_path": "\/9Qup5iL38gWj9HO7OfuOymMS7p.jpg",
      "id": 682639,
      "adult": false,
      "backdrop_path": "\/r2ocNrrGIoe7dsJl56ZTYFtHufO.jpg",
      "original_language": "en",
      "original_title": "Imsai Arasi",
      "genre_ids": [
        35,
        80,
        18
      ],
      "title": "Imsai Arasi",
      "vote_average": 0,
      "overview": "Two men who are employed in a medical shop by day, team up by night to commit theft. When they finally manage a huge heist, they must go on the run as they're being hunted both by the police and the mafia. How will the future unfold for them?",
      "release_date": "2020-06-03"
    },
    {
      "popularity": 11.727,
      "vote_count": 76,
      "video": false,
      "poster_path": "\/cdqZqIcWt0Ne2Io2OA9iWqqMuCA.jpg",
      "id": 589049,
      "adult": false,
      "backdrop_path": "\/kU5qE5b6ksL3osaqKCUlMS08Ays.jpg",
      "original_language": "en",
      "original_title": "The Photograph",
      "genre_ids": [
        18,
        10749
      ],
      "title": "The Photograph",
      "vote_average": 7,
      "overview": "When famed photographer Christina Eames dies unexpectedly, she leaves her estranged daughter, Mae, hurt, angry and full of questions. When Mae finds a photograph tucked away in a safe-deposit box, she soon finds herself delving into her mother's early life -- an investigation that leads to an unexpected romance with a rising journalist.",
      "release_date": "2020-02-14"
    }
  ],
  "page": 1,
  "total_results": 173,
  "dates": {
    "maximum": "2020-06-26",
    "minimum": "2020-06-01"
  },
  "total_pages": 9
}
