{"page":1,"total_results":122,"total_pages":7,"results":[{"original_name":"Marvel's Agents of S.H.I.E.L.D.","genre_ids":[18,10759,10765],"name":"Marvel's Agents of S.H.I.E.L.D.","popularity":115.722,"origin_country":["US"],"vote_count":1622,"first_air_date":"2013-09-24","backdrop_path":"\/mUCV0W6TaAk8UWA5yAmqCywC63F.jpg","original_language":"en","id":1403,"vote_average":7,"overview":"Agent Phil Coulson of S.H.I.E.L.D. (Strategic Homeland Intervention, Enforcement and Logistics Division) puts together a team of agents to investigate the new, the strange and the unknown around the globe, protecting the ordinary from the extraordinary.","poster_path":"\/gHUCCMy1vvj58tzE3dZqeC9SXus.jpg"},{"original_name":"The 100","genre_ids":[18,10759,10765],"name":"The 100","popularity":106.805,"origin_country":["US"],"vote_count":2774,"first_air_date":"2014-03-19","backdrop_path":"\/b10vxUPzBYnkHDybgsk8vS4u4lX.jpg","original_language":"en","id":48866,"vote_average":7.4,"overview":"100 years in the future, when the Earth has been abandoned due to radioactivity, the last surviving humans live on an ark orbiting the planet — but the ark won't last forever. So the repressive regime picks 100 expendable juvenile delinquents to send down to Earth to see if the planet is still habitable.","poster_path":"\/wcaDIAG1QdXQLRaj4vC1EFdBT2.jpg"},{"original_name":"Tosh.0","genre_ids":[35],"name":"Tosh.0","popularity":65.689,"origin_country":["US"],"vote_count":56,"first_air_date":"2009-06-04","backdrop_path":"\/hwcp3YNuPIKqxqREmcaFrAJaQfO.jpg","original_language":"en","id":18014,"vote_average":5.7,"overview":"A weekly topical series hosted by comedian Daniel Tosh that delves into all aspects of the Internet, from the ingenious to the absurd to the medically inadvisable.","poster_path":"\/6PLXAci8bZCtzDzqzgfpffWfaHe.jpg"},{"original_name":"DC's Legends of Tomorrow","genre_ids":[18,10759,10765],"name":"DC's Legends of Tomorrow","popularity":60.693,"origin_country":["US"],"vote_count":1102,"first_air_date":"2016-01-21","backdrop_path":"\/be8fOACxsVyaX6lZLlQOWNqF0g2.jpg","original_language":"en","id":62643,"vote_average":6.8,"overview":"When heroes alone are not enough ... the world needs legends. Having seen the future, one he will desperately try to prevent from happening, time-traveling rogue Rip Hunter is tasked with assembling a disparate group of both heroes and villains to confront an unstoppable threat — one in which not only is the planet at stake, but all of time itself. Can this ragtag team defeat an immortal threat unlike anything they have ever known?","poster_path":"\/yJ3xE11IDIe29LJsSbhzwt5Oxtd.jpg"},{"original_name":"WWE NXT","genre_ids":[18,10759],"name":"WWE NXT","popularity":40.57,"origin_country":["US"],"vote_count":37,"first_air_date":"2010-02-23","backdrop_path":null,"original_language":"en","id":31991,"vote_average":6.5,"overview":"Wrestlers will portray heroes or villains as they follow a series of events that build tension and culminate in a wrestling match or series of matches.","poster_path":"\/yh6cpWfIaiNbZDlqTjjzv7OSooV.jpg"},{"original_name":"America's Got Talent","genre_ids":[10764],"name":"America's Got Talent","popularity":35.15,"origin_country":["US"],"vote_count":129,"first_air_date":"2006-06-21","backdrop_path":"\/fAD4PPYVMERUI7pGqGZIwSYqDUC.jpg","original_language":"en","id":4551,"vote_average":5.5,"overview":"A weekly talent competition where an array of performers – from singers and dancers, to comedians and novelty acts – vie for a $1 million cash prize.","poster_path":"\/pmL3KI6ROdc9fkjHabqWlBnSUGf.jpg"},{"original_name":"Dirty John","genre_ids":[18],"name":"Dirty John","popularity":34.635,"origin_country":["US"],"vote_count":23,"first_air_date":"2018-11-25","backdrop_path":"\/ovVbeHOHxlKaK0Ce6uJb2Z4UZuo.jpg","original_language":"en","id":83251,"vote_average":6.7,"overview":"This true crime anthology, based on the podcast of the same name, follows the terrifyingly true story of Orange County interior designer Debra Newell’s romance with John Meehan, a handsome and romantic charmer who sweeps Debra off her feet and pulls her into his web of lies.","poster_path":"\/epIeL5ru4ETHTL3X3XOmT1ryd84.jpg"},{"original_name":"Fuller House","id":63623,"name":"Fuller House","popularity":30.029,"vote_count":179,"vote_average":7,"first_air_date":"2016-02-26","poster_path":"\/yfoG75Ol4VtnnOBdiwz17TT8RaD.jpg","genre_ids":[10751,35],"original_language":"en","backdrop_path":"\/aiXDRO3jglLdpkBjTJTJ1o8yQbL.jpg","overview":"D.J. Tanner-Fuller is a widow and mother of three. Things become too much to handle, so she asks for help from her sister Stephanie and her best-friend Kimmy.","origin_country":["US"]},{"original_name":"Days of Our Lives","genre_ids":[18,10766],"name":"Days of Our Lives","popularity":26.004,"origin_country":["US"],"vote_count":47,"first_air_date":"1965-11-08","backdrop_path":"\/e7MSbwYRVqd4rZQQWcNuJvOSHLC.jpg","original_language":"en","id":881,"vote_average":6,"overview":"The Horton and Brady broods endure the romantic trials of life in Salem, a Midwestern hamlet filled with evil geniuses, star-crossed lovers and a rich family history.","poster_path":"\/7Zm7epVFEovMEVLpM6FvrjhaNXn.jpg"},{"original_name":"Naked News","id":12301,"name":"Naked News","popularity":24.811,"vote_count":30,"vote_average":6.7,"first_air_date":"2006-03-01","poster_path":"\/nDyTg0OSK3RZt95KcmhUL86Tmmt.jpg","genre_ids":[35,10763],"original_language":"en","backdrop_path":null,"overview":"The program with nothing to hide. A real television newscast, the show is prepared in Toronto and runs daily, with 25-minute episodes 6 days per week. The female anchors read the news fully nude or strip as they present their news segments.","origin_country":["CA"]},{"original_name":"What We Do in the Shadows","genre_ids":[35],"name":"What We Do in the Shadows","popularity":20.751,"origin_country":["US"],"vote_count":75,"first_air_date":"2019-03-27","backdrop_path":"\/clUbKNOJW7Eujopfhe2tQEIXWoD.jpg","original_language":"en","id":83631,"vote_average":7.3,"overview":"A documentary-style look into the daily (or rather, nightly) lives of three vampires in Staten Island who have “lived” together for hundreds and hundreds of years.","poster_path":"\/aEwa2kqu5XORbmMwdhEHufODcIr.jpg"},{"original_name":"The Challenge","genre_ids":[10764],"name":"The Challenge","popularity":20.64,"origin_country":["US"],"vote_count":35,"first_air_date":"1998-06-01","backdrop_path":"\/pptfo6vIMDAdJ7HsF4mTPwad3y6.jpg","original_language":"en","id":62,"vote_average":7.9,"overview":"Each Challenge pits numerous cast members from past seasons of reality shows against each other, dividing them into two separate teams according to different criteria, such as gender, which show they first appeared on, whether or not they're veterans or rookies on the show, etc. The two teams compete in numerous missions in order to win prizes and advance in the overall game.","poster_path":"\/vmoLHBmaqraxI8DG24tj5mLJTBx.jpg"},{"original_name":"18 어게인","genre_ids":[],"name":"18 Again","popularity":19.758,"origin_country":["KR"],"vote_count":0,"first_air_date":"2020-06-02","backdrop_path":null,"original_language":"en","id":100037,"vote_average":0,"overview":"Jung Da-Jung is married to 37-year-old Hong Dae-Young. They have have 18-year-old son and daughter. Jung Da-Jung works hard as a rookie announcer and she has a warm heart. She becomes completely fed up with her husband and is unable to deal with him anymore. Hong Dae-Young got fired from his job and he is looked down upon by his family. Jung Da-Jung hands him divorce papers.","poster_path":null},{"original_name":"Barkskins","genre_ids":[18],"name":"Barkskins","popularity":18.553,"origin_country":[],"vote_count":7,"first_air_date":"2020-05-25","backdrop_path":"\/4phXdxtys3wHezx3eJqqkcUh7y7.jpg","original_language":"en","id":93737,"vote_average":6.4,"overview":"A disparate group of outcasts and dreamers battle to escape their pasts while navigating the brutal frontier hardships, competing interests, and tangled loyalties at the crossroads of civilization: the New World. Based on the novel by Pulitzer-winner Annie Proulx.","poster_path":"\/8tjE58tGcXjAsLXo38BDJepy0P1.jpg"},{"original_name":"El hormiguero 3.0","id":6809,"name":"El hormiguero 3.0","popularity":18.11,"vote_count":11,"vote_average":6.6,"first_air_date":"2006-09-24","poster_path":"\/u4oT95NMlirb5GbSZDcvYm66SzP.jpg","genre_ids":[35,10767],"original_language":"es","backdrop_path":"\/wr5EciEdIBbQ0aDBrC06RZIyfyS.jpg","overview":"El Hormiguero is a Spanish television program with a live audience focusing on comedy, science, and politics running since September 2006. It is hosted and produced by screenwriter Pablo Motos. The show aired on Spain's Cuatro channel from launch until June 2011 and is now broadcast on Antena 3. Recurring guests on the show include Luis Piedrahita, Raquel Martos, Marron & \"The Man in Black\", and puppet ants Trancas and Barrancas. It has proved a ratings success, and has expanded from a weekly 120-minute show to a daily 40-minute show in its third season, which began on September 17, 2007. The show won the Entertainment prize at the 2009 Rose d'Or ceremony.","origin_country":["ES"]},{"original_name":"World of Dance","genre_ids":[10764],"name":"World of Dance","popularity":14.365,"origin_country":[],"vote_count":12,"first_air_date":"2017-05-30","backdrop_path":"\/j0UOxwLvomknwu2wtOcveeC3rLn.jpg","original_language":"en","id":71957,"vote_average":7.3,"overview":"Dancers battle in heats of artistry, precision and athleticism in this reality-competition show.","poster_path":"\/syR1jnNWkCBKVjPXA2FmCcdXxJI.jpg"},{"original_name":"La Resistencia","genre_ids":[35],"name":"La Resistencia","popularity":13.265,"origin_country":["ES"],"vote_count":5,"first_air_date":"2018-02-01","backdrop_path":"\/k3BPzReIXNF6CKjm1dRQwRZClLr.jpg","original_language":"es","id":76949,"vote_average":8.6,"overview":"","poster_path":"\/jvIt5J9TXzEra9MqUwthWhQzjhO.jpg"},{"original_name":"El ministerio del tiempo","genre_ids":[18,10759],"name":"The Ministry of Time","popularity":11.979,"origin_country":["ES"],"vote_count":46,"first_air_date":"2015-02-24","backdrop_path":"\/fTiD5eo4i8Mt90Ww9Ab8B2n94Kl.jpg","original_language":"es","id":62099,"vote_average":7,"overview":"A soldier from the 15th century, a university student from the 19th century and a nurse from the present join the secret 'Department of Time', a secret department within the Spanish government with the ability to travel through time. Their mission is prevent changes in history.","poster_path":"\/9WzmfZnNWlwmTYWjZ92uBJqjDpZ.jpg"},{"original_name":"Wild 'n Out","genre_ids":[35],"name":"Wild 'n Out","popularity":11.693,"origin_country":["US"],"vote_count":30,"first_air_date":"2005-07-28","backdrop_path":"\/vkLXB6f1ig1tR2nRmlEY3Zg8NBs.jpg","original_language":"en","id":2299,"vote_average":8.4,"overview":"Nick Cannon and an A-list celebrity lead a team of improv comedians as they compete against each other.","poster_path":"\/uCTlrloDinco3y2E3qSRbx0Y9Ce.jpg"},{"original_name":"Terra Nova","genre_ids":[18],"name":"Terra Nova","popularity":10.543,"origin_country":[],"vote_count":0,"first_air_date":"2020-06-03","backdrop_path":null,"original_language":"pt","id":103978,"vote_average":0,"overview":"The captain of a portuguese cod ship makes a risky decision in the treacherous cold waters of the North Sea.","poster_path":null}]}
